[
  {
    "title": "Unstoppable team needs a healthy organization",
    "body": "A “healthy” organization is the one with high morale, low turnover, minimal politics, and high productivity. In other words, “health” has to do with the management of people, unlike “smarts”, which Lencioni describes as organizations having effective strategy, marketing, finance, and technology.",
    "author": "Patrick Lencioni",
    "ref": "https://www.amazon.com/dp/B006ORWT3Y/ref=dp-kindle-redirect?_encoding=UTF8&amp;btkr=1",
    "source": "The Advantage",
    "type": "book",
    "show": false
  },
  {
    "title": "Complex systems need empowerement to be controlled effecitvely",
    "body": "Delegation of control is a manager’s way of controlling complex systems. According to the Conant Ashby Theorem, every good regulator of a system must have a model of that system. But with complex systems the available information for a controller is either too complex to comprehend or not enough to construct a proper model of it.",
    "author": "Appelo, Jurgen",
    "ref": "Management 3.0 (Addison-Wesley Signature Series (Cohn)) (p. 123)",
    "source": "Management 3.0",
    "type": "book"
  },
  {
    "title": "Trust and Respect - keys to make empowerement and delegation work",
    "body": "Between you and team members four types of trust and mutual respect need to be in place. Or else self-organization might not work as intended. (1) trust or respect your team, (2) earn trust and respect of / from the team, (3) team members trust in / respect each other, (4) trust / respect yourself)",
    "author": "Appelo, Jurgen",
    "ref": "Management 3.0 (Addison-Wesley Signature Series (Cohn)) (p. 141)",
    "source": "Management 3.0",
    "type": "book"
  }
]
