{
  "productsInfo": {
    "title": "About products and services",
    "info": [
      "A simple description of what an organization actually does. No flowery adjectives or adverbs here. Nothing ethereal or abstract. Just an unsexy, one-sentence definition—something your grandmother can understand. <p class='citation'>Lencioni, Patrick M.. The Advantage: Why Organizational Health Trumps Everything Else In Business (J-B Lencioni Series) (p. 105). Wiley. Kindle Edition. </p>"
    ]
  },
    "productsExamples": [
    {
      "company": "Google",
      "statement": "Google Search is a web search engine and Google\"s core product. It receives over 3 billion search queries per day. Google also offers regional search by its 189 regional level domains. "
    },
    {
      "company": "Amazon Cloud Products",
      "statement": "Amazon Web Services offers a broad set of global cloud-based products including compute, storage, databases, analytics, networking, mobile, developer tools, management tools, IoT, security and enterprise applications. "
    },
    {
      "company": "IT (at CIO Level) - 3 levels of IT",
      "statement": "<p><b>1. Governance</b> - refers to the implementation of operational parameters for working units and individuals' use of IT systems, architecture, and networks. The governance of the master data is based on workflow processes that integrate business rules and subject matter domain expertise.</p><p> <b>2. Infrastructure</b> - refers to the hardware components, the network, the circuitry, and all other equipment necessary to make an IT system function according to the established needs and system 'size' of the company.</p><p><b>3. Functionality</b>  - is perhaps the most apparent task performed by the IT department. It refers to creating and maintaining operational applications; developing, securing, and storing electronic data that belongs to the organization; and assisting in the use of software and data management to all functional areas of the organization.</p>"
    },
    {
      "company": "IT - (at a Department Solution Delivery)",
      "statement": "Creating the applications that serve its core business needs."
    },
    {
     "company": "A Power Company",
     "statement": "We generate and deliver electrical and natural gas products and services to people throughout the state..</p>"
    },
    {
     "company": "A credit card company",
     "statement": "We provide payment products and extend credit to consumers."
    },
    {
     "company": "A technology hardware company",
     "statement": "We develop, manufacture, and market hard drives, solid-state drives, and storage subsystems for consumers, OEMs, and enterprises."
    },
    {
     "company": "A biopharmaceutical company",
     "statement": "We discover, develop, make, and commercialize better medicines through integrated sciences."
    },
    {
     "company": "A Catholic church",
     "statement": "We provide Sacraments, outreach services, counseling, and religious education for people in our parish."
    }
  ]
}