{
  "strategyExamples": [
    {
      "company": "Sporting Goods Stor - Anchor 1",
      "statement": "Keep prices low by being frugal whenever we can.",
      "source": "Lencioni, Patrick M.. The Advantage: Why Organizational Health Trumps Everything Else In Business (J-B Lencioni Series) (p. 114). Wiley. Kindle Edition."
    },
    {
      "company": "Sporting Goods Stor - Anchor 2",
      "statement": "Create a positive, flexible environment for employees.",
      "source": "Lencioni, Patrick M.. The Advantage: Why Organizational Health Trumps Everything Else In Business (J-B Lencioni Series) (p. 114). Wiley. Kindle Edition."
    },
    {
      "company": "Sporting Goods Stor - Anchor 3",
      "statement": "Build local loyalty and become community destination.",
      "source": "Lencioni, Patrick M.. The Advantage: Why Organizational Health Trumps Everything Else In Business (J-B Lencioni Series) (p. 114). Wiley. Kindle Edition."
    },
    {
      "company": "Large Food Company - Anchor 1",
      "statement": "Continuing to make better-tasting and higher-quality products than their competitors.",
      "source": "Lencioni, Patrick M.. The Advantage: Why Organizational Health Trumps Everything Else In Business (J-B Lencioni Series) (p. 114). Wiley. Kindle Edition."
    },
    {
      "company": "Large Food Company - Anchor 2",
      "statement": "Being great at in-store merchandising and placement.",
      "source": "Lencioni, Patrick M.. The Advantage: Why Organizational Health Trumps Everything Else In Business (J-B Lencioni Series) (p. 114). Wiley. Kindle Edition."
    },
    {
      "company": "Large Food Company - Anchor 3",
      "statement": "Delivering consistent and conservative financial results to their parent company.",
      "source": "Lencioni, Patrick M.. The Advantage: Why Organizational Health Trumps Everything Else In Business (J-B Lencioni Series) (p. 114). Wiley. Kindle Edition."
    },
    {
      "company": "Charter School - Anchor 1",
      "statement": "The ability to leverage standardized processes for efficiency and low cost",
      "source": "Lencioni, Patrick M.. The Advantage: Why Organizational Health Trumps Everything Else In Business (J-B Lencioni Series) (p. 117). Wiley. Kindle Edition."
    },
    {
      "company": "Charter School - Anchor 2",
      "statement": "To do only cost-effective, targeted marketing to parents in the micro-markets they served.",
      "source": "Lencioni, Patrick M.. The Advantage: Why Organizational Health Trumps Everything Else In Business (J-B Lencioni Series) (p. 117). Wiley. Kindle Edition."
    },
    {
      "company": "Charter School - Anchor 3",
      "statement": "To focus relentlessly on student achievement and parents’ return on investment.",
      "source": "Lencioni, Patrick M.. The Advantage: Why Organizational Health Trumps Everything Else In Business (J-B Lencioni Series) (p. 117). Wiley. Kindle Edition."
    }
  ],
  "strategyInfo": {
    "title": "About Strategic Anchors",
    "info": [
      "<p>Strategy is simply a collection of intentional decisions an organization makes to give itself the best chance to thrive and differentiate from competitors.</p><p><b>Strategic anchors</b> are identified as a way to provide <b>the context</b> for all decisions to be made. They inform and provide <b>filter</b> through which all decisions can be evaluated to ensure consistency.<p>",
      "The strategic anchors also help avoid making purely pragmatic or opportunistic decisions that end diminishing company's plan for success. It's way for an organization to agree on what NOT to do. The strategic anchors should change as soon as competitive landscape changes and market conditions call for a different approach.",
      "Unlike a company’s reason for existing and core values, which never change, and the business definition, which changes fairly infrequently, an organization’s strategic anchors should change whenever its competitive landscape shifts and market conditions call for a different approach.<p class='citation'>Lencioni, Patrick M.. The Advantage: Why Organizational Health Trumps Everything Else In Business (J-B Lencioni Series) (p. 114). Wiley. Kindle Edition.</p>"
    ]
  }
}